<?xml version="1.0" encoding="iso-8859-1"?>
<!-- Generator: Adobe Illustrator 17.0.0, SVG Export Plug-In . SVG Version: 6.00 Build 0)  -->
<!DOCTYPE svg PUBLIC "-//W3C//DTD SVG 1.1//EN" "http://www.w3.org/Graphics/SVG/1.1/DTD/svg11.dtd">
<svg version="1.1" id="Layer_1" xmlns="http://www.w3.org/2000/svg" xmlns:xlink="http://www.w3.org/1999/xlink" x="0px" y="0px"
	 width="100px" height="100px" viewBox="0 0 100 100" style="enable-background:new 0 0 100 100;" xml:space="preserve">
<circle style="fill:#0E303F;" cx="50" cy="50" r="49.041"/>
<g>
	<polygon style="fill:#A6DAE9;" points="37.587,57 39.943,57 42.36,57 43.099,53 39.943,53 36.848,53 	"/>
	<polygon style="fill:#A6DAE9;" points="50.749,53.072 52.415,51.406 54.124,49.697 51.408,45.935 49.176,48.167 46.988,50.355 	"/>
	<polygon style="fill:#A6DAE9;" points="58,41.205 58,38.849 58,36.432 54,35.693 54,38.849 54,41.944 	"/>
	<polygon style="fill:#A6DAE9;" points="53.876,28.043 52.21,26.377 50.501,24.668 46.739,27.384 48.971,29.616 51.159,31.805 	"/>
	<polygon style="fill:#A6DAE9;" points="42.009,21 39.653,21 37.236,21 36.497,26 39.653,26 42.748,26 	"/>
	<polygon style="fill:#A6DAE9;" points="28.847,24.916 27.181,26.582 25.472,28.291 28.188,32.053 30.42,29.821 32.609,27.633 	"/>
	<polygon style="fill:#A6DAE9;" points="22,36.783 22,39.139 22,41.556 27,42.295 27,39.139 27,36.044 	"/>
	<polygon style="fill:#A6DAE9;" points="25.721,49.945 27.386,51.611 29.096,53.32 32.857,50.604 30.625,48.372 28.437,46.184 	"/>
	<circle style="fill:#FFFFFF;stroke:#A6DAE9;stroke-width:5;stroke-miterlimit:10;" cx="39.798" cy="38.994" r="12.696"/>
	<circle style="fill:#C2D64C;" cx="39.798" cy="38.994" r="7.902"/>
	<polygon style="fill:#A6DAE9;" points="72.722,68.074 74.724,67.387 76.778,66.682 75.993,62.349 73.311,63.27 70.681,64.172 	"/>
	<polygon style="fill:#A6DAE9;" points="82.723,60.788 83.653,58.887 84.607,56.936 81.202,54.531 79.957,57.079 78.735,59.576 	"/>
	<polygon style="fill:#A6DAE9;" points="85.016,48.73 84.329,46.729 83.625,44.675 79.292,45.459 80.212,48.141 81.114,50.771 	"/>
	<polygon style="fill:#A6DAE9;" points="78.084,38.608 76.183,37.678 74.232,36.723 71.827,40.128 74.375,41.374 76.872,42.596 	"/>
	<polygon style="fill:#A6DAE9;" points="66.026,36.315 64.025,37.002 61.971,37.706 62.755,42.039 65.437,41.119 68.067,40.217 	"/>
	<polygon style="fill:#A6DAE9;" points="55.904,43.247 54.974,45.148 54.019,47.099 57.424,49.503 58.67,46.956 59.892,44.459 	"/>
	<polygon style="fill:#A6DAE9;" points="53.257,55.426 53.944,57.428 54.648,59.482 58.981,58.697 58.061,56.015 57.159,53.385 	"/>
	<polygon style="fill:#A6DAE9;" points="60.543,65.427 62.444,66.357 64.395,67.311 66.799,63.906 64.252,62.661 61.755,61.439 	"/>
	<circle style="fill:#FFFFFF;stroke:#A6DAE9;stroke-width:5;stroke-miterlimit:10;" cx="69.313" cy="52.017" r="11.406"/>
	<circle style="fill:#C2D64C;" cx="69.313" cy="52.017" r="7.099"/>
	<polygon style="fill:#A6DAE9;" points="31.496,79.374 33.127,78.782 34.801,78.174 34.124,74.715 31.939,75.508 29.795,76.286 	"/>
	<polygon style="fill:#A6DAE9;" points="39.492,72.984 40.226,71.412 40.98,69.798 38.153,67.877 37.169,69.983 36.204,72.049 	"/>
	<polygon style="fill:#A6DAE9;" points="41.464,62.967 40.872,61.335 40.264,59.662 36.805,60.339 37.599,62.524 38.377,64.667 	"/>
	<polygon style="fill:#A6DAE9;" points="35.363,54.866 33.791,54.132 32.177,53.378 30.255,56.205 32.362,57.189 34.428,58.154 	"/>
	<polygon style="fill:#A6DAE9;" points="25.345,52.894 23.714,53.486 22.04,54.094 22.717,57.553 24.903,56.759 27.046,55.981 	"/>
	<polygon style="fill:#A6DAE9;" points="17.245,58.995 16.51,60.568 15.757,62.181 18.584,64.103 19.568,61.996 20.533,59.93 	"/>
	<polygon style="fill:#A6DAE9;" points="14.984,69.117 15.576,70.749 16.184,72.422 19.643,71.745 18.85,69.56 18.072,67.417 	"/>
	<polygon style="fill:#A6DAE9;" points="21.374,77.113 22.946,77.848 24.56,78.601 26.481,75.774 24.375,74.79 22.309,73.825 	"/>
	<circle style="fill:#FFFFFF;stroke:#A6DAE9;stroke-width:5;stroke-miterlimit:10;" cx="28.368" cy="65.99" r="9.353"/>
	<circle style="fill:#C2D64C;" cx="28.368" cy="65.99" r="5.821"/>
</g>
</svg>
