<?xml version="1.0" encoding="iso-8859-1"?>
<!-- Generator: Adobe Illustrator 17.0.0, SVG Export Plug-In . SVG Version: 6.00 Build 0)  -->
<!DOCTYPE svg PUBLIC "-//W3C//DTD SVG 1.1//EN" "http://www.w3.org/Graphics/SVG/1.1/DTD/svg11.dtd">
<svg version="1.1" id="Layer_1" xmlns="http://www.w3.org/2000/svg" xmlns:xlink="http://www.w3.org/1999/xlink" x="0px" y="0px"
	 width="100px" height="100px" viewBox="0 0 100 100" style="enable-background:new 0 0 100 100;" xml:space="preserve">
<circle style="fill:#0E303F;" cx="50" cy="50" r="47.5"/>
<g>
	<g>
		<g>
			<g>
				<g>
					<path style="fill:#1695A4;" d="M29.565,76.666c0.264,1.489-0.732,2.908-2.219,3.17l-7.187,1.268
						c-1.488,0.263-2.907-0.732-3.17-2.221l-3.247-18.416c-0.263-1.488,0.731-2.906,2.22-3.168l7.186-1.269
						c1.488-0.262,2.907,0.733,3.171,2.222L29.565,76.666z"/>
					<g>
						<path style="fill:#1695A4;" d="M67.544,43.247c-2.015-2.015-5.286-2.015-7.298,0.002c-2.017,2.012-2.019,5.276-0.002,7.293
							l0.002,0.002l0.002,0.002c2.013,2.013,5.285,2.012,7.295-0.003C69.556,48.528,69.553,45.262,67.544,43.247L67.544,43.247
							L67.544,43.247z"/>
					</g>
					<path style="fill:#FFFFFF;" d="M30.897,32.258L30.896,53.72h28.643V20.551c-5.009,5.733-11.603,9.863-19.086,11.35
						C37.187,32.55,33.978,32.645,30.897,32.258z"/>
					<path style="fill:#15B0BF;" d="M31.567,32.184H15.831c-6.046,0-10.947,4.902-10.947,10.947l-0.001,7.526
						c0,6.044,4.901,10.945,10.948,10.945l15.735,0.001L31.567,32.184z"/>
					<path style="fill:#C2D64C;" d="M60.984,74.934c-1.369,0-2.48-1.27-2.48-2.838V21.693c0-1.569,1.11-2.84,2.479-2.84h2.479
						c1.37-0.001,2.481,1.272,2.481,2.84v50.402c0,1.567-1.111,2.839-2.481,2.839H60.984z"/>
					<path style="fill:#A6DAE9;" d="M59.539,73.16V46.737H30.895l0.001,14.72c3.079-0.389,6.291-0.293,9.555,0.354
						C47.936,63.298,54.528,67.429,59.539,73.16z"/>
					<path style="fill:#1695A4;" d="M31.566,46.737H4.884l-0.001,3.921c0,6.044,4.901,10.945,10.948,10.945l15.735,0.001
						C31.566,61.604,31.566,46.737,31.566,46.737z"/>
					<path style="fill:#A1B400;" d="M65.944,72.095L65.943,46.73h-7.439v25.366c0,1.568,1.111,2.838,2.48,2.838h2.479
						C64.833,74.934,65.944,73.663,65.944,72.095z"/>
					<path style="fill:#15B0BF;" d="M19.469,63.91c-0.178-0.957-1.097-1.591-2.059-1.414l0,0c-0.957,0.178-1.59,1.098-1.414,2.057
						l2.533,13.694c0.178,0.959,1.1,1.594,2.059,1.416l0,0c0.956-0.177,1.591-1.099,1.415-2.057L19.469,63.91z"/>
				</g>
				<g>
					<g>
						<path style="fill:#FFFFFF;" d="M73.283,47.602c-0.319,0-0.578-0.258-0.578-0.578c0-0.319,0.259-0.578,0.578-0.578
							l21.257-0.001c0.319,0,0.578,0.258,0.578,0.578c0,0.319-0.259,0.578-0.578,0.578L73.283,47.602L73.283,47.602z"/>
					</g>
					<g>
						<g>
							<path style="fill:#FFFFFF;" d="M72.89,43.02c-0.213,0-0.419-0.119-0.519-0.323c-0.141-0.287-0.022-0.633,0.264-0.773
								l19.078-9.374c0.286-0.142,0.632-0.023,0.774,0.264c0.141,0.287,0.022,0.633-0.264,0.773l-19.078,9.374
								C73.063,43.001,72.976,43.02,72.89,43.02L72.89,43.02z"/>
						</g>
						<g>
							<path style="fill:#FFFFFF;" d="M91.967,61.559c-0.086,0-0.172-0.019-0.254-0.06l-19.078-9.374
								c-0.286-0.14-0.404-0.487-0.264-0.773c0.141-0.287,0.487-0.406,0.774-0.264l19.078,9.374c0.286,0.14,0.404,0.487,0.264,0.773
								C92.385,61.44,92.18,61.559,91.967,61.559L91.967,61.559z"/>
						</g>
					</g>
				</g>
			</g>
		</g>
	</g>
</g>
</svg>
