<?xml version="1.0" encoding="iso-8859-1"?>
<!-- Generator: Adobe Illustrator 17.0.0, SVG Export Plug-In . SVG Version: 6.00 Build 0)  -->
<!DOCTYPE svg PUBLIC "-//W3C//DTD SVG 1.1//EN" "http://www.w3.org/Graphics/SVG/1.1/DTD/svg11.dtd">
<svg version="1.1" id="Layer_1" xmlns="http://www.w3.org/2000/svg" xmlns:xlink="http://www.w3.org/1999/xlink" x="0px" y="0px"
	 width="400px" height="150px" viewBox="0 0 400 150" style="enable-background:new 0 0 400 150;" xml:space="preserve">
<g>
	<g>
		<path style="fill:#414042;" d="M90.501,80.118c0,4.638-1.709,9.475-4.901,9.475H57.462c-3.194,0-6.671-4.839-6.671-9.475V13.497
			c0-4.638,3.478-7.74,6.671-7.74h28.14c3.194,0,4.901,3.102,4.901,7.74L90.501,80.118L90.501,80.118z"/>
		<rect x="51.893" y="16.788" style="fill:#CE971B;" width="37.506" height="60.672"/>
		<circle style="fill:#353334;" cx="71.314" cy="82.345" r="3.568"/>
		<circle style="fill:#353334;" cx="71.314" cy="10.099" r="1.672"/>
		<path style="fill:#353334;" d="M81.454,14.581c0,0.369-0.214,1.103-0.478,1.103H61.864c-0.263,0-0.478-0.733-0.478-1.103l0,0
			c0-0.369,0.214-1.103,0.478-1.103h19.112C81.24,13.478,81.454,14.212,81.454,14.581L81.454,14.581z"/>
		<rect x="62.373" y="89.041" style="fill:none;stroke:#414042;stroke-miterlimit:10;" width="15.444" height="3.309"/>
	</g>
	<g>
		<path style="fill:#CE971B;" d="M314.5,14.338c-11.786,0.122-21.22,9.825-21.22,21.024c0,3.259,0.804,5.936,2.233,9.805h0.075
			c0.729,0.967,1.631,1.949,2.673,3.135c0.075,0.085,0.149-0.133,0.224-0.048c0.052,0.049,0.097-0.017,0.149,0.032
			c0.127,0.148,0.26,0.263,0.402,0.411c0.268,0.275,0.552,0.49,0.834,0.744c4.549,5.193,9.791,15.071,9.791,27.646h4.84h5.213
			c0-12.574,5.241-22.49,9.791-27.683c0.284-0.254,0.566-0.514,0.834-0.789c0.141-0.148,0.276-0.335,0.402-0.482
			c0.052-0.049,0.097-0.132,0.149-0.182c0.075-0.085,0.149,0.436,0.224,0.352c1.043-1.185,1.943-2.167,2.673-3.134h0.075
			c1.43-3.869,2.048-6.545,2.048-9.805C335.907,24.163,326.414,14.46,314.5,14.338z"/>
		<path style="fill:#CE971B;" d="M314.389,11.536c0,0.411-0.333,0.745-0.745,0.745h-0.445c-0.411,0-0.745-0.333-0.745-0.745v-9.15
			c0-0.411,0.333-0.745,0.745-0.745h0.445c0.411,0,0.745,0.333,0.745,0.745V11.536z"/>
		<path style="fill:#CE971B;" d="M302.463,14.3c0.206,0.356,0.083,0.812-0.273,1.018l0,0c-0.356,0.206-0.812,0.083-1.018-0.273
			l-4.468-7.738c-0.206-0.356-0.083-0.812,0.273-1.018l0,0c0.356-0.206,0.812-0.083,1.018,0.273L302.463,14.3z"/>
		<path style="fill:#CE971B;" d="M293.378,23.384c0.356,0.206,0.478,0.661,0.273,1.018l0,0c-0.206,0.356-0.661,0.478-1.018,0.273
			l-7.738-4.468c-0.356-0.206-0.478-0.661-0.273-1.018l0,0c0.206-0.356,0.661-0.478,1.018-0.273L293.378,23.384z"/>
		<path style="fill:#CE971B;" d="M291.175,36.684c0,0.411-0.333,0.745-0.745,0.745h-9.15c-0.411,0-0.745-0.333-0.745-0.745V36.24
			c0-0.411,0.333-0.745,0.745-0.745h9.15c0.411,0,0.745,0.333,0.745,0.745V36.684z"/>
		<path style="fill:#CE971B;" d="M294.487,48.137c0.206,0.356,0.083,0.812-0.273,1.018l-7.738,4.468
			c-0.356,0.206-0.812,0.083-1.018-0.273l0,0c-0.206-0.356-0.083-0.812,0.273-1.018l7.738-4.468
			C293.826,47.657,294.281,47.781,294.487,48.137L294.487,48.137z"/>
		<path style="fill:#CE971B;" d="M344.419,51.132c0.356,0.206,0.478,0.661,0.273,1.018l0,0c-0.206,0.356-0.661,0.478-1.018,0.273
			l-7.738-4.468c-0.356-0.206-0.478-0.661-0.273-1.018l0,0c0.206-0.356,0.661-0.478,1.018-0.273L344.419,51.132z"/>
		<path style="fill:#CE971B;" d="M349.21,35.717c0,0.411-0.333,0.745-0.745,0.745h-9.15c-0.411,0-0.745-0.333-0.745-0.745v-0.445
			c0-0.411,0.333-0.745,0.745-0.745h9.15c0.411,0,0.745,0.333,0.745,0.745V35.717z"/>
		<path style="fill:#CE971B;" d="M344.038,17.808c0.206,0.356,0.083,0.812-0.273,1.018l-7.738,4.468
			c-0.356,0.206-0.812,0.083-1.018-0.273l0,0c-0.206-0.356-0.083-0.812,0.273-1.018l7.738-4.468
			C343.377,17.33,343.833,17.451,344.038,17.808L344.038,17.808z"/>
		<path style="fill:#CE971B;" d="M331.138,5.635c0.356,0.206,0.478,0.661,0.273,1.018l-4.468,7.738
			c-0.206,0.356-0.661,0.478-1.018,0.273l0,0c-0.356-0.206-0.478-0.661-0.273-1.018l4.468-7.738
			C330.327,5.552,330.782,5.43,331.138,5.635L331.138,5.635z"/>
		<path style="fill:#414042;" d="M321.16,79.021c0,0.534-0.552,0.967-1.231,0.967h-11.08c-0.68,0-1.231-0.433-1.231-0.967l0,0
			c0-0.534,0.552-0.967,1.231-0.967h11.08C320.608,78.053,321.16,78.486,321.16,79.021L321.16,79.021z"/>
		<path style="fill:#414042;" d="M321.16,81.922c0,0.534-0.552,0.967-1.231,0.967h-11.08c-0.68,0-1.231-0.433-1.231-0.967l0,0
			c0-0.534,0.552-0.967,1.231-0.967h11.08C320.608,80.954,321.16,81.388,321.16,81.922L321.16,81.922z"/>
		<path style="fill:#FFFFFF;stroke:#FFFFFF;stroke-miterlimit:10;" d="M296.01,36.945c0,0-1.45-19.891,18.862-19.891v0.62
			c0,0-18.266-0.075-18.266,19.27H296.01z"/>
	</g>
	<path style="fill:none;stroke:#414042;stroke-width:1.6;stroke-miterlimit:10;" d="M314.389,81.922"/>
	<g>
		<g>
			<g>
				<path style="fill:#414042;stroke:#414042;stroke-width:1.6;stroke-miterlimit:10;" d="M145.39,17.813
					c-4.062,1.489-7.202,3.944-9.419,7.366c-2.218,3.424-3.326,7.665-3.326,12.725c0,2.263,0.186,3.81,0.561,4.643
					c0.372,0.834,0.56,1.339,0.56,1.518c-5.718,0-8.576-2.708-8.576-8.126c0-3.69,1.268-7.396,3.807-11.116
					c2.539-3.72,5.799-6.755,9.779-9.108c3.98-2.351,7.949-3.527,11.903-3.527c1.977,0,4.008,0.417,6.092,1.25l-1.844,47.058
					l17.634-47.058h11.543l-8.417,65.721h-11.542l5.13-40.093l-15.07,40.093h-10.982l1.604-40.271l-13.386,40.271h-6.413
					L145.39,17.813z"/>
				<path style="fill:#414042;stroke:#414042;stroke-width:1.6;stroke-miterlimit:10;" d="M185.067,76.121
					c-2.299-2.261-3.447-5.834-3.447-10.715c0-4.048,0.749-8.541,2.245-13.483c1.495-4.941,3.9-9.211,7.214-12.814
					c3.313-3.601,7.481-5.402,12.505-5.402c6.84,0,10.26,4.763,10.26,14.287v0.089c0.161,0.06,0.454,0.09,0.883,0.09
					c1.763,0,3.794-0.52,6.092-1.563c2.298-1.041,4.381-2.306,6.253-3.795l0.721,2.411c-1.551,1.846-3.568,3.409-6.053,4.688
					c-2.485,1.281-5.197,2.187-8.136,2.724c-0.429,5.418-1.524,10.149-3.287,14.197c-1.763,4.049-4.035,7.175-6.813,9.376
					c-2.779,2.203-5.799,3.304-9.059,3.304C190.491,79.515,187.364,78.384,185.067,76.121z M201.5,69.023
					c1.283-1.637,2.405-3.869,3.366-6.697c0.962-2.826,1.657-5.967,2.085-9.42c-1.444-0.358-2.165-1.607-2.165-3.75
					c0-2.44,0.828-4.048,2.485-4.822c-0.107-1.964-0.374-3.318-0.801-4.063c-0.429-0.744-1.177-1.117-2.245-1.117
					c-1.763,0-3.474,1.429-5.129,4.286c-1.658,2.858-2.994,6.282-4.008,10.269c-1.016,3.989-1.523,7.5-1.523,10.537
					c0,2.858,0.294,4.778,0.882,5.76c0.587,0.982,1.656,1.473,3.206,1.473C198.934,71.478,200.216,70.66,201.5,69.023z"/>
				<path style="fill:#414042;stroke:#414042;stroke-width:1.6;stroke-miterlimit:10;" d="M220.256,76.703
					c-1.924-1.995-2.886-4.807-2.886-8.439c0-1.785,0.189-3.482,0.561-5.09l8.576-44.736l11.864-1.786l-3.847,20.091
					c1.495-1.011,2.725-1.681,3.687-2.009c0.962-0.326,1.924-0.491,2.886-0.491c6.304,0,9.459,5.09,9.459,15.269
					c0,4.108-0.709,8.498-2.124,13.171c-1.417,4.673-3.768,8.677-7.054,12.01c-3.287,3.335-7.549,5-12.785,5
					C224.959,79.693,222.179,78.697,220.256,76.703z M237.73,67.594c1.444-2.292,2.592-5.149,3.447-8.572
					c0.854-3.422,1.283-6.711,1.283-9.867c0-2.38-0.374-4.405-1.122-6.072c-0.748-1.666-1.791-2.5-3.126-2.5
					c-0.801,0-1.697,0.134-2.685,0.402c-0.99,0.268-1.67,0.67-2.044,1.205l-4.409,22.681c-0.161,0.714-0.242,1.399-0.242,2.054
					c0,2.739,1.415,4.107,4.248,4.107C234.737,71.032,236.288,69.886,237.73,67.594z"/>
				<path style="fill:#414042;stroke:#414042;stroke-width:1.6;stroke-miterlimit:10;" d="M255.243,77.014
					c-1.576-1.786-2.364-4.465-2.364-8.036c0-1.487,0.214-3.423,0.641-5.804l5.45-28.664h11.544l-5.772,30.361
					c-0.214,0.893-0.321,1.846-0.321,2.857c0,1.192,0.253,2.04,0.762,2.545c0.507,0.506,1.349,0.759,2.525,0.759
					c0.961,0,1.816-0.178,2.564-0.535c-0.214,2.977-1.162,5.255-2.846,6.831c-1.684,1.579-3.675,2.366-5.972,2.366
					C258.891,79.693,256.82,78.8,255.243,77.014z M262.418,27.635c-1.23-1.369-1.844-3.036-1.844-5c0-1.965,0.614-3.647,1.844-5.045
					c1.228-1.398,2.726-2.098,4.49-2.098c1.762,0,3.272,0.7,4.529,2.098c1.255,1.399,1.882,3.081,1.882,5.045s-0.627,3.631-1.882,5
					c-1.257,1.37-2.767,2.054-4.529,2.054C265.144,29.689,263.646,29.005,262.418,27.635z"/>
			</g>
			<g>
				<path style="fill:#414042;stroke:#414042;stroke-width:1.6;stroke-miterlimit:10;" d="M113.767,140.64
					c0-1.308,0.173-2.812,0.52-4.509c0.347-1.695,0.841-3.883,1.483-6.562c0.748-2.799,1.309-5.179,1.684-7.143
					c0.373-1.966,0.561-3.721,0.561-5.27c0-4.048-1.604-6.072-4.809-6.072c-0.856,0-1.737,0.121-2.645,0.358l-6.413,33.664H92.604
					l10.901-56.791l11.864-1.786l-3.928,20.627h0.641c2.084,0,4.007-0.804,5.771-2.411c1.763-1.608,3.138-3.616,4.128-6.028
					c0.988-2.411,1.483-4.776,1.483-7.098c0-2.738-0.736-4.986-2.204-6.742c-1.471-1.756-3.675-2.634-6.614-2.634
					c-4.328,0-8.123,0.863-11.382,2.588c-3.26,1.727-5.785,4.229-7.574,7.5c-1.791,3.275-2.685,7.145-2.685,11.609
					c0,2.203,0.186,3.737,0.561,4.598c0.372,0.864,0.56,1.355,0.56,1.474c-2.885,0-5.037-0.67-6.452-2.009
					c-1.417-1.339-2.124-3.555-2.124-6.651c0-3.809,1.403-7.516,4.208-11.118c2.805-3.601,6.399-6.519,10.781-8.75
					c4.381-2.232,8.763-3.349,13.145-3.349c4.008,0,7.375,0.656,10.1,1.964c2.726,1.311,4.756,3.052,6.092,5.224
					c1.335,2.174,2.003,4.539,2.003,7.098c0,2.8-0.775,5.597-2.324,8.394c-1.551,2.8-3.661,5.09-6.333,6.876
					c2.031,0.656,3.46,1.741,4.289,3.26c0.827,1.518,1.242,3.408,1.242,5.669c0,1.727-0.188,3.558-0.561,5.492
					c-0.374,1.935-0.909,4.331-1.603,7.189c-0.429,1.847-0.83,3.661-1.202,5.447c-0.375,1.786-0.561,3.275-0.561,4.464
					c0,1.371,0.281,2.59,0.842,3.661c0.56,1.073,1.322,1.816,2.284,2.232c-3.26,1.012-5.905,1.518-7.935,1.518
					C115.851,146.623,113.767,144.63,113.767,140.64z"/>
				<path style="fill:#414042;stroke:#414042;stroke-width:1.6;stroke-miterlimit:10;" d="M135.49,142.203
					c-2.192-2.29-3.287-5.877-3.287-10.76c0-4.108,0.722-8.631,2.165-13.572c1.443-4.941,3.793-9.211,7.054-12.814
					c3.258-3.601,7.401-5.402,12.424-5.402c5.878,0,8.818,2.857,8.818,8.572c0,3.336-0.856,6.401-2.565,9.198
					c-1.711,2.799-3.981,5.044-6.814,6.742c-2.833,1.695-5.851,2.664-9.058,2.901c-0.108,1.786-0.161,2.978-0.161,3.572
					c0,2.917,0.453,4.897,1.363,5.938c0.909,1.043,2.377,1.563,4.409,1.563c2.886,0,5.357-0.744,7.415-2.232
					c2.056-1.487,4.314-3.75,6.773-6.786h2.726c-5.932,11.014-13.28,16.519-22.043,16.519
					C140.752,145.64,137.68,144.496,135.49,142.203z M150.519,120.459c1.79-1.429,3.233-3.244,4.329-5.446
					c1.095-2.203,1.642-4.524,1.642-6.965s-0.669-3.661-2.004-3.661c-1.924,0-3.807,1.875-5.651,5.626
					c-1.844,3.75-3.166,8.008-3.968,12.768C146.844,122.663,148.729,121.888,150.519,120.459z"/>
				<path style="fill:#414042;stroke:#414042;stroke-width:1.6;stroke-miterlimit:10;" d="M166.269,142.203
					c-2.192-2.29-3.287-5.877-3.287-10.76c0-4.108,0.736-8.631,2.205-13.572c1.47-4.941,3.819-9.211,7.054-12.814
					c3.232-3.601,7.334-5.402,12.304-5.402c3.206,0,5.491,0.774,6.854,2.322c1.363,1.547,2.044,3.513,2.044,5.893
					c0,2.085-0.4,3.693-1.202,4.823c-0.802,1.131-1.817,1.695-3.046,1.695c-0.909,0-1.844-0.356-2.806-1.071
					c0.641-1.964,0.961-3.721,0.961-5.268c0-1.13-0.188-2.023-0.56-2.68c-0.375-0.655-0.936-0.982-1.684-0.982
					c-1.603,0-3.206,1.459-4.809,4.375c-1.604,2.917-2.914,6.46-3.928,10.626c-1.016,4.169-1.523,7.919-1.523,11.251
					c0,2.917,0.453,4.897,1.363,5.938c0.909,1.043,2.377,1.563,4.409,1.563c2.886,0,5.357-0.744,7.415-2.232
					c2.056-1.487,4.314-3.75,6.773-6.786h2.726c-5.932,11.014-13.28,16.519-22.043,16.519
					C171.532,145.64,168.46,144.496,166.269,142.203z"/>
				<path style="fill:#414042;stroke:#414042;stroke-width:1.6;stroke-miterlimit:10;" d="M217.409,143.007
					c-1.711-1.755-2.564-4.271-2.564-7.546c0-1.429,0.16-2.975,0.48-4.643l0.643-3.482c0.211-1.011,0.319-2.112,0.319-3.304
					c0-2.857-0.962-4.286-2.888-4.286c-0.854,0-1.75,0.267-2.685,0.804c-0.935,0.535-2.016,1.37-3.247,2.5l-4.167,22.055h-11.543
					l11.621-60.721l11.864-1.784l-6.011,31.431l15.469-13.572h7.938l-16.033,12.411c0.803-0.237,1.684-0.358,2.646-0.358
					c2.884,0,5.075,0.982,6.572,2.948c1.497,1.964,2.245,4.464,2.245,7.5c0,1.249-0.106,2.38-0.319,3.393l-0.881,4.464
					c-0.269,1.073-0.401,2.024-0.401,2.859c0,2.203,1.041,3.304,3.126,3.304c1.602,0,2.884-0.64,3.847-1.921
					c0.962-1.279,1.925-3.258,2.888-5.938h3.364c-3.313,11.014-8.228,16.519-14.748,16.519
					C221.63,145.64,219.117,144.763,217.409,143.007z"/>
				<path style="fill:#414042;stroke:#414042;stroke-width:1.6;stroke-miterlimit:10;" d="M238.65,142.069
					c-2.299-2.263-3.447-5.834-3.447-10.715c0-4.048,0.75-8.541,2.245-13.484c1.495-4.941,3.9-9.211,7.214-12.814
					c3.313-3.601,7.481-5.402,12.505-5.402c6.84,0,10.26,4.762,10.26,14.286v0.09c0.161,0.059,0.454,0.089,0.883,0.089
					c1.763,0,3.794-0.52,6.092-1.563c2.298-1.041,4.381-2.306,6.253-3.795l0.721,2.412c-1.551,1.845-3.568,3.408-6.053,4.687
					c-2.485,1.281-5.197,2.187-8.136,2.723c-0.429,5.419-1.524,10.151-3.287,14.199c-1.763,4.049-4.035,7.173-6.813,9.376
					c-2.779,2.203-5.799,3.304-9.058,3.304C244.073,145.463,240.948,144.333,238.65,142.069z M255.083,134.97
					c1.283-1.637,2.405-3.869,3.366-6.697c0.962-2.827,1.656-5.968,2.085-9.421c-1.444-0.358-2.165-1.607-2.165-3.75
					c0-2.441,0.828-4.048,2.485-4.822c-0.107-1.966-0.374-3.319-0.801-4.064c-0.429-0.743-1.177-1.115-2.245-1.115
					c-1.763,0-3.474,1.429-5.129,4.286c-1.658,2.857-2.994,6.28-4.008,10.269c-1.017,3.989-1.524,7.5-1.524,10.536
					c0,2.857,0.293,4.778,0.883,5.76c0.587,0.982,1.655,1.474,3.206,1.474C252.517,137.426,253.8,136.609,255.083,134.97z"/>
				<path style="fill:#414042;stroke:#414042;stroke-width:1.6;stroke-miterlimit:10;" d="M292.917,142.783
					c-1.283-1.904-1.924-4.316-1.924-7.232c0-1.251,0.132-2.664,0.4-4.242c0.267-1.576,0.548-3.109,0.841-4.598
					c0.295-1.487,0.493-2.441,0.602-2.857c0.427-2.083,0.828-4.138,1.202-6.162c0.372-2.023,0.561-3.66,0.561-4.91
					c0-3.036-0.962-4.554-2.886-4.554c-1.391,0-2.619,0.759-3.687,2.278c-1.07,1.518-1.924,3.497-2.566,5.938l-5.45,28.663h-11.542
					l8.496-44.646h11.543l-0.883,4.643c2.672-3.334,5.798-5.001,9.379-5.001c2.725,0,4.889,0.834,6.493,2.5
					c1.602,1.667,2.405,4.197,2.405,7.59c0,1.727-0.189,3.648-0.561,5.76c-0.374,2.114-0.909,4.689-1.604,7.724
					c-0.429,1.847-0.815,3.648-1.162,5.402c-0.348,1.758-0.522,3.141-0.522,4.153c0,1.191,0.242,2.114,0.722,2.768
					c0.48,0.654,1.308,0.982,2.485,0.982c1.283,0,2.163-0.179,2.645-0.535c-0.319,3.036-1.296,5.328-2.925,6.875
					c-1.631,1.549-3.595,2.322-5.893,2.322C296.255,145.64,294.199,144.689,292.917,142.783z"/>
			</g>
		</g>
		<path style="fill:none;stroke:#414042;stroke-width:1.6;stroke-miterlimit:10;" d="M69.642,92.351c0,0-37.93,75.769,28.496,51.052
			"/>
		<path style="fill:none;stroke:#414042;stroke-width:1.6;stroke-miterlimit:10;" d="M299.584,140.313
			c0,0,73.489,24.309,14.805-58.391"/>
	</g>
</g>
</svg>
